wordpress_id,wordpress_title,product_type,description,series,color_name,color_number,sku,nominal_size,nominal_units,actual_size,actual_units,sheet_size,thickness,thickness_units,grout_joint,calibrated_rectified,finish,tile_type,trim_type,recycled_content,green_squared_certified,made_in_usa,hydrotect_available,shade_variation,dcof,get_planked_available,body_type,color_reference,style,exterior_paving,interior_floors_dry,interior_floors_wet_areas,shower_floor_linear_drains,exterior_walls,exterior_covered_walls,interior_walls_dry,interior_walls_wet,counters,pool_fountain_full_lining,waterline_pool_fountain,tile_over_tile,special_notes,associated_img_url,featured_image_url,header_img_url,header_video_url,header_video_thumbnail,sizesContent,sample_sizes,custom_size_image,trim_image
23805,Beatnik,Porcelain Stone,Bohemia - Beatnik  - 12x24,Bohemia,Beatnik,BHM08,BHM08.11224UPS,12 x 24,inch,297 x 597,mm,,10.5,mm,3mm,rectified,UPS,Field Tile,,4%,Yes,Yes,Yes,V3,0.42-0.52,Yes,Through Body Porcelain,neutral,concrete,,X,X,X,X,X,X,X,X,X,X,,,"https://crossvilleinc.com/wordpress/wp-content/uploads/2017/11/iSculptor-Crossville-Vignette-Bar_Table-View.jpg, https://crossvilleinc.com/wordpress/wp-content/uploads/2017/11/Crossville_LaundryRoom_Detail.jpg, https://crossvilleinc.com/wordpress/wp-content/uploads/2017/11/iSculptor-Crossville-Vignette-Bar_Desk-View.jpg, https://crossvilleinc.com/wordpress/wp-content/uploads/2017/11/Crossville_Retail_Detail_C_Revised.jpg, https://crossvilleinc.com/wordpress/wp-content/uploads/2017/11/Crossville_LaundryRoom.jpg, https://crossvilleinc.com/wordpress/wp-content/uploads/2017/11/Crossville_Retail_Detail_C.jpg",https://crossvilleinc.com/wordpress/wp-content/uploads/2017/11/BHM08-BOHEMIA-24X24A.jpg,https://crossvilleinc.com/wordpress/wp-content/uploads/2017/11/bohemia_header.jpg,,,,"2 X2 UPS, 3 X 6 UPS, 12 X 24 UPS",,
23805,Beatnik,Porcelain Stone,Bohemia - Beatnik  - 24x24,Bohemia,Beatnik,BHM08,BHM08.12424UPS,24 x 24,inch,597 x 597,mm,,10.5,mm,3mm,rectified,UPS,Field Tile,,4%,Yes,Yes,Yes,V3,0.42-0.52,Yes,Through Body Porcelain,neutral,concrete,,X,X,X,X,X,X,X,X,X,X,,,"https://crossvilleinc.com/wordpress/wp-content/uploads/2017/11/iSculptor-Crossville-Vignette-Bar_Table-View.jpg, https://crossvilleinc.com/wordpress/wp-content/uploads/2017/11/Crossville_LaundryRoom_Detail.jpg, https://crossvilleinc.com/wordpress/wp-content/uploads/2017/11/iSculptor-Crossville-Vignette-Bar_Desk-View.jpg, https://crossvilleinc.com/wordpress/wp-content/uploads/2017/11/Crossville_Retail_Detail_C_Revised.jpg, https://crossvilleinc.com/wordpress/wp-content/uploads/2017/11/Crossville_LaundryRoom.jpg, https://crossvilleinc.com/wordpress/wp-content/uploads/2017/11/Crossville_Retail_Detail_C.jpg",https://crossvilleinc.com/wordpress/wp-content/uploads/2017/11/BHM08-BOHEMIA-24X24C.jpg,https://crossvilleinc.com/wordpress/wp-content/uploads/2017/11/bohemia_header.jpg,,,,"2 X2 UPS, 3 X 6 UPS, 12 X 24 UPS",,
23805,Beatnik,Porcelain Stone,Bohemia - Beatnik - 4x24,Bohemia,Beatnik,BHM08,BHM08.10424BNS,4 x 24,inch,96 x 597,mm,,10.5,mm,3mm,rectified,UPS,Trim,Single Bullnose,4%,Yes,Yes,Yes,V3,0.42-0.52,Yes,Through Body Porcelain,neutral,concrete,,X,X,X,X,X,X,X,X,X,X,,,"https://crossvilleinc.com/wordpress/wp-content/uploads/2017/11/iSculptor-Crossville-Vignette-Bar_Table-View.jpg, https://crossvilleinc.com/wordpress/wp-content/uploads/2017/11/Crossville_LaundryRoom_Detail.jpg, https://crossvilleinc.com/wordpress/wp-content/uploads/2017/11/iSculptor-Crossville-Vignette-Bar_Desk-View.jpg, https://crossvilleinc.com/wordpress/wp-content/uploads/2017/11/Crossville_Retail_Detail_C_Revised.jpg, https://crossvilleinc.com/wordpress/wp-content/uploads/2017/11/Crossville_LaundryRoom.jpg, https://crossvilleinc.com/wordpress/wp-content/uploads/2017/11/Crossville_Retail_Detail_C.jpg",,https://crossvilleinc.com/wordpress/wp-content/uploads/2017/11/bohemia_header.jpg,,,,,,https://crossvilleinc.com/wordpress/wp-content/uploads/2014/05/2x8sbn.jpg
23805,Beatnik,Porcelain Stone,Bohemia - Beatnik - 6x12,Bohemia,Beatnik,BHM08,BHM08.10612CBS,6 x 12,inch,150 x 297,mm,,10,mm,3mm,rectified,UPS,Trim,Covebase,4%,Yes,Yes,Yes,V3,0.42-0.52,Yes,Through Body Porcelain,neutral,concrete,,X,X,X,X,X,X,X,X,X,X,,,"https://crossvilleinc.com/wordpress/wp-content/uploads/2017/11/iSculptor-Crossville-Vignette-Bar_Table-View.jpg, https://crossvilleinc.com/wordpress/wp-content/uploads/2017/11/Crossville_LaundryRoom_Detail.jpg, https://crossvilleinc.com/wordpress/wp-content/uploads/2017/11/iSculptor-Crossville-Vignette-Bar_Desk-View.jpg, https://crossvilleinc.com/wordpress/wp-content/uploads/2017/11/Crossville_Retail_Detail_C_Revised.jpg, https://crossvilleinc.com/wordpress/wp-content/uploads/2017/11/Crossville_LaundryRoom.jpg, https://crossvilleinc.com/wordpress/wp-content/uploads/2017/11/Crossville_Retail_Detail_C.jpg",,https://crossvilleinc.com/wordpress/wp-content/uploads/2017/11/bohemia_header.jpg,,,,,,https://crossvilleinc.com/wordpress/wp-content/uploads/2014/05/4x8_CBN-Covebase_Covebase-Corners1.jpg
23805,Beatnik,Porcelain Stone,Bohemia - Beatnik - 3x3,Bohemia,Beatnik,BHM08,BHM08.10303MOS,3 x 3,inch,297 x 297,mm,,10.5,mm,3mm,rectified,UPS,Mosaic,,4%,Yes,Yes,Yes,V3,0.42-0.52,Yes,Through Body Porcelain,neutral,concrete,,X,X,X,X,X,X,X,X,X,X,,,"https://crossvilleinc.com/wordpress/wp-content/uploads/2017/11/iSculptor-Crossville-Vignette-Bar_Table-View.jpg, https://crossvilleinc.com/wordpress/wp-content/uploads/2017/11/Crossville_LaundryRoom_Detail.jpg, https://crossvilleinc.com/wordpress/wp-content/uploads/2017/11/iSculptor-Crossville-Vignette-Bar_Desk-View.jpg, https://crossvilleinc.com/wordpress/wp-content/uploads/2017/11/Crossville_Retail_Detail_C_Revised.jpg, https://crossvilleinc.com/wordpress/wp-content/uploads/2017/11/Crossville_LaundryRoom.jpg, https://crossvilleinc.com/wordpress/wp-content/uploads/2017/11/Crossville_Retail_Detail_C.jpg",https://crossvilleinc.com/wordpress/wp-content/uploads/2017/11/Crossville_BHM08_3x3_Mosaic.jpg,https://crossvilleinc.com/wordpress/wp-content/uploads/2017/11/bohemia_header.jpg,,,,,https://crossvilleinc.com/wordpress/wp-content/uploads/2017/11/Crossville_BHM08_3x3_Mosaic.jpg,
23805,Beatnik,Porcelain Stone,Bohemia - Beatnik - 12x12,Bohemia,Beatnik,BHM08,BHM08.1BASKMOS,12 x 12,inch,301.3 x 301.3,mm,,10.5,mm,3mm,rectified,UPS,Mosaic,,4%,Yes,Yes,Yes,V3,0.42-0.52,Yes,Through Body Porcelain,neutral,concrete,,X,X,X,X,X,X,X,X,X,X,,,"https://crossvilleinc.com/wordpress/wp-content/uploads/2017/11/iSculptor-Crossville-Vignette-Bar_Table-View.jpg, https://crossvilleinc.com/wordpress/wp-content/uploads/2017/11/Crossville_LaundryRoom_Detail.jpg, https://crossvilleinc.com/wordpress/wp-content/uploads/2017/11/iSculptor-Crossville-Vignette-Bar_Desk-View.jpg, https://crossvilleinc.com/wordpress/wp-content/uploads/2017/11/Crossville_Retail_Detail_C_Revised.jpg, https://crossvilleinc.com/wordpress/wp-content/uploads/2017/11/Crossville_LaundryRoom.jpg, https://crossvilleinc.com/wordpress/wp-content/uploads/2017/11/Crossville_Retail_Detail_C.jpg",https://crossvilleinc.com/wordpress/wp-content/uploads/2017/11/Crossville_BHM08_2x2_Mosaic.jpg,https://crossvilleinc.com/wordpress/wp-content/uploads/2017/11/bohemia_header.jpg,,,,,https://crossvilleinc.com/wordpress/wp-content/uploads/2017/11/Crossville_BHM08_2x2_Mosaic.jpg,
